{
	"info": {
		"_postman_id": "a68df1da-d732-4c53-8245-0f8f5563a1d6",
		"name": "MockProductServer",
		"schema": "https://schema.getpostman.com/json/collection/v2.1.0/collection.json"
	},
	"item": [
		{
			"name": "productManagement/bundle/123456789/component",
			"request": {
				"method": "POST",
				"header": [],
				"body": {
					"mode": "raw",
					"raw": "{\n\t\"instanceId\": 10001,\n\t\"componentId\": \"20001\",\n\t\"name\": \"compName\",\n\t\"benefitType\": \"voice\",\n\t\"benefitValueOverridden\": 3001,\n\t\"benefitUnitOfMeasure\": \"measureUnit\",\n\t\"priceOverridden\": 5000,\n\t\"modifiedBy\": \"Robin\",\n\t\"modifiedDate\": \"20-09-2018 00:00:00\"\n}"
				},
				"url": {
					"raw": "{{url}}/productManagement/bundle/123456789/component",
					"host": [
						"{{url}}"
					],
					"path": [
						"productManagement",
						"bundle",
						"123456789",
						"component"
					]
				},
				"description": "addBundleComponent"
			},
			"response": [
				{
					"id": "4de19742-6481-4b99-a4e9-2a1b15361293",
					"name": "Default",
					"originalRequest": {
						"method": "POST",
						"header": [],
						"body": {
							"mode": "raw",
							"raw": "{\n\t\"instanceId\": 10001,\n\t\"componentId\": \"20001\",\n\t\"name\": \"compName\",\n\t\"benefitType\": \"voice\",\n\t\"benefitValueOverridden\": 3001,\n\t\"benefitUnitOfMeasure\": \"measureUnit\",\n\t\"priceOverridden\": 5000,\n\t\"modifiedBy\": \"Robin\",\n\t\"modifiedDate\": \"20-09-2018 00:00:00\"\n}"
						},
						"url": {
							"raw": "{{url}}/productManagement/bundle/123456789/component",
							"host": [
								"{{url}}"
							],
							"path": [
								"productManagement",
								"bundle",
								"123456789",
								"component"
							]
						}
					},
					"code": 200,
					"_postman_previewlanguage": null,
					"header": null,
					"cookie": [],
					"body": "Successful operation"
				}
			]
		},
		{
			"name": "productManagement/bundle/123456789/rule",
			"request": {
				"method": "POST",
				"header": [],
				"body": {
					"mode": "raw",
					"raw": "{\n\t\"ruleId\": 10001,\n\t\"name\": \"ruleName\",\n\t\"decisionType\": \"price\",\n\t\"when\": [\n\t\t\t\t{\n\t\t\t\t\t\"conditionId\": 101,\n\t\t\t\t\t\"leftOperand\": \"paytm\",\n\t\t\t\t\t\"rightOperand\": \"card\"\n\t\t\t\t}\n\t\t\t],\n\t\"then\": [\n\t\t\t\t{\n\t\t\t\t\t\"resultId\": 101,\n\t\t\t\t\t\"leftOperand\": \"10\",\n\t\t\t\t\t\"operator\": \"Airtel\",\n\t\t\t\t\t\"rightOperand\": \"paytm\"\n\t\t\t\t}\n\t\t\t],\n\t\"modifiedBy\": \"Robin\",\n\t\"modifiedDate\": \"20-09-2018 00:00:00\"\n}\n"
				},
				"url": {
					"raw": "{{url}}/productManagement/bundle/123456789/rule",
					"host": [
						"{{url}}"
					],
					"path": [
						"productManagement",
						"bundle",
						"123456789",
						"rule"
					]
				},
				"description": "addBundleRule"
			},
			"response": [
				{
					"id": "38a55227-621e-4af6-918a-16f22d273ab5",
					"name": "Default",
					"originalRequest": {
						"method": "POST",
						"header": [],
						"body": {
							"mode": "raw",
							"raw": "{\n\t\"ruleId\": 10001,\n\t\"name\": \"ruleName\",\n\t\"decisionType\": \"price\",\n\t\"when\": [\n\t\t\t\t{\n\t\t\t\t\t\"conditionId\": 101,\n\t\t\t\t\t\"leftOperand\": \"paytm\",\n\t\t\t\t\t\"rightOperand\": \"card\"\n\t\t\t\t}\n\t\t\t],\n\t\"then\": [\n\t\t\t\t{\n\t\t\t\t\t\"resultId\": 101,\n\t\t\t\t\t\"leftOperand\": \"10\",\n\t\t\t\t\t\"operator\": \"Airtel\",\n\t\t\t\t\t\"rightOperand\": \"paytm\"\n\t\t\t\t}\n\t\t\t],\n\t\"modifiedBy\": \"Robin\",\n\t\"modifiedDate\": \"20-09-2018 00:00:00\"\n}\n"
						},
						"url": {
							"raw": "{{url}}/productManagement/bundle/123456789/rule",
							"host": [
								"{{url}}"
							],
							"path": [
								"productManagement",
								"bundle",
								"123456789",
								"rule"
							]
						}
					},
					"code": 200,
					"_postman_previewlanguage": null,
					"header": null,
					"cookie": [],
					"body": "Successful operation"
				}
			]
		},
		{
			"name": "productManagement/bundle",
			"request": {
				"method": "POST",
				"header": [],
				"body": {
					"mode": "raw",
					"raw": "{\n\t\"bundleId\": 10001,\n\t\"name\": \"bundleName\",\n\t\"description\": \"bundle description\",\n\t\"priceSumOfComponents\": \"system derived by summing up the price of each component\",\n\t\"priceOverridden\": \"overridden at bundle level by marketing user. optional\",\n\t\"status\": \"active\",\n\t\"category\": [\"category1\", \"category2\"],\n\t\"effectiveStartDate\": \"20-09-2018 00:00:00\",\n\t\"effectiveEndDate\": \"25-09-2018 00:00:00\",\n\t\"modifiedBy\": \"Robin\",\n\t\"modifiedDate\": \"20-09-2018 00:00:00\"\n}"
				},
				"url": {
					"raw": "{{url}}/productManagement/bundle",
					"host": [
						"{{url}}"
					],
					"path": [
						"productManagement",
						"bundle"
					]
				},
				"description": "createBundle"
			},
			"response": [
				{
					"id": "40e347f3-266a-4948-a463-2231fa99f2bc",
					"name": "Default",
					"originalRequest": {
						"method": "POST",
						"header": [],
						"body": {
							"mode": "raw",
							"raw": "{\n\t\"bundleId\": 10001,\n\t\"name\": \"bundleName\",\n\t\"description\": \"bundle description\",\n\t\"priceSumOfComponents\": \"system derived by summing up the price of each component\",\n\t\"priceOverridden\": \"overridden at bundle level by marketing user. optional\",\n\t\"status\": \"active\",\n\t\"category\": [\"category1\", \"category2\"],\n\t\"effectiveStartDate\": \"20-09-2018 00:00:00\",\n\t\"effectiveEndDate\": \"25-09-2018 00:00:00\",\n\t\"modifiedBy\": \"Robin\",\n\t\"modifiedDate\": \"20-09-2018 00:00:00\"\n}"
						},
						"url": {
							"raw": "{{url}}/productManagement/bundle",
							"host": [
								"{{url}}"
							],
							"path": [
								"productManagement",
								"bundle"
							]
						}
					},
					"code": 200,
					"_postman_previewlanguage": null,
					"header": null,
					"cookie": [],
					"body": "Successful operation"
				}
			]
		},
		{
			"name": "productManagement/component",
			"request": {
				"method": "POST",
				"header": [],
				"body": {
					"mode": "raw",
					"raw": "{\n\t\"componentId\": \"20001\",\n\t\"name\": \"compName\",\n\t\"offerId\": \"offer-01\",\n\t\"daId\": \"dedicated_account_id\",\n\t\"utId\": \"usage_threshold_id\",\n\t\"ucId\": \"usage_counter_id\",\n\t\"category\": \"A1\",\n\t\"benefitType\": \"voice\",\n\t\"benefitValue\": 10.25,\n\t\"benefitUnitOfMeasure\": \"50\",\n\t\"price\": 100,\n\t\"effectiveStartDate\": \"20-09-2018 00:00:00\",\n\t\"effectiveEndDate\": \"25-09-2018 00:00:00\",\n\t\"modifiedBy\": \"Robin\",\n\t\"modifiedDate\": \"20-09-2018 00:00:00\"\n}"
				},
				"url": {
					"raw": "{{url}}/productManagement/component",
					"host": [
						"{{url}}"
					],
					"path": [
						"productManagement",
						"component"
					]
				},
				"description": "createComponent"
			},
			"response": [
				{
					"id": "0449c571-0d87-4eb8-a746-33890878df52",
					"name": "Default",
					"originalRequest": {
						"method": "POST",
						"header": [],
						"body": {
							"mode": "raw",
							"raw": "{\n\t\"componentId\": \"20001\",\n\t\"name\": \"compName\",\n\t\"offerId\": \"offer-01\",\n\t\"daId\": \"dedicated_account_id\",\n\t\"utId\": \"usage_threshold_id\",\n\t\"ucId\": \"usage_counter_id\",\n\t\"category\": \"A1\",\n\t\"benefitType\": \"voice\",\n\t\"benefitValue\": 10.25,\n\t\"benefitUnitOfMeasure\": \"50\",\n\t\"price\": 100,\n\t\"effectiveStartDate\": \"20-09-2018 00:00:00\",\n\t\"effectiveEndDate\": \"25-09-2018 00:00:00\",\n\t\"modifiedBy\": \"Robin\",\n\t\"modifiedDate\": \"20-09-2018 00:00:00\"\n}"
						},
						"url": {
							"raw": "{{url}}/productManagement/component",
							"host": [
								"{{url}}"
							],
							"path": [
								"productManagement",
								"component"
							]
						}
					},
					"code": 200,
					"_postman_previewlanguage": null,
					"header": null,
					"cookie": [],
					"body": "Successful operation"
				}
			]
		},
		{
			"name": "productManagement/bundle/10001",
			"request": {
				"method": "GET",
				"header": [],
				"body": {
					"mode": "raw",
					"raw": ""
				},
				"url": {
					"raw": "{{url}}/productManagement/bundle/10001",
					"host": [
						"{{url}}"
					],
					"path": [
						"productManagement",
						"bundle",
						"10001"
					]
				},
				"description": "getBundle"
			},
			"response": [
				{
					"id": "0f434e42-4c2e-456d-b8f0-3c1a1401ea94",
					"name": "Default",
					"originalRequest": {
						"method": "GET",
						"header": [],
						"body": {
							"mode": "raw",
							"raw": ""
						},
						"url": {
							"raw": "{{url}}/productManagement/bundle/10001",
							"host": [
								"{{url}}"
							],
							"path": [
								"productManagement",
								"bundle",
								"10001"
							]
						}
					},
					"code": 200,
					"_postman_previewlanguage": null,
					"header": null,
					"cookie": [],
					"body": "{\n\t\"bundleId\": 10001,\n\t\"name\": \"bundleName\",\n\t\"description\": \"bundle description\",\n\t\"priceSumOfComponents\": \"system derived by summing up the price of each component\",\n\t\"priceOverridden\": \"overridden at bundle level by marketing user. optional\",\n\t\"status\": \"active\",\n\t\"category\": [\"category1\", \"category2\"],\n\t\"effectiveStartDate\": \"20-09-2018 00:00:00\",\n\t\"effectiveEndDate\": \"25-09-2018 00:00:00\",\n\t\"modifiedBy\": \"Robin\",\n\t\"modifiedDate\": \"20-09-2018 00:00:00\"\n}"
				}
			]
		},
		{
			"name": "productManagement/bundle/123456789/component/20001",
			"request": {
				"method": "GET",
				"header": [],
				"body": {
					"mode": "raw",
					"raw": ""
				},
				"url": {
					"raw": "{{url}}/productManagement/bundle/123456789/component/20001",
					"host": [
						"{{url}}"
					],
					"path": [
						"productManagement",
						"bundle",
						"123456789",
						"component",
						"20001"
					]
				},
				"description": "getBundleComponent"
			},
			"response": [
				{
					"id": "d50eb83d-724e-4b3a-aad3-0b470a0cca22",
					"name": "Default",
					"originalRequest": {
						"method": "GET",
						"header": [],
						"body": {
							"mode": "raw",
							"raw": ""
						},
						"url": {
							"raw": "{{url}}/productManagement/bundle/123456789/component/20001",
							"host": [
								"{{url}}"
							],
							"path": [
								"productManagement",
								"bundle",
								"123456789",
								"component",
								"20001"
							]
						}
					},
					"code": 200,
					"_postman_previewlanguage": null,
					"header": null,
					"cookie": [],
					"body": "[\n\t{\n\t\t\"instanceId\": 10001,\n\t\t\"componentId\": \"20001\",\n\t\t\"name\": \"compName\",\n\t\t\"benefitType\": \"voice\",\n\t\t\"benefitValueOverridden\": 3001,\n\t\t\"benefitUnitOfMeasure\": \"measureUnit\",\n\t\t\"priceOverridden\": 5000,\n\t\t\"modifiedBy\": \"Robin\",\n\t\t\"modifiedDate\": \"20-09-2018 00:00:00\"\n\t}\n]"
				}
			]
		},
		{
			"name": "productManagement/bundle/10001",
			"request": {
				"method": "DELETE",
				"header": [],
				"body": {
					"mode": "raw",
					"raw": ""
				},
				"url": {
					"raw": "{{url}}/productManagement/bundle/10001",
					"host": [
						"{{url}}"
					],
					"path": [
						"productManagement",
						"bundle",
						"10001"
					]
				},
				"description": "deleteBundle"
			},
			"response": [
				{
					"id": "81e51c3a-7a89-4939-90c7-5856a88a91b1",
					"name": "Default",
					"originalRequest": {
						"method": "DELETE",
						"header": [],
						"body": {
							"mode": "raw",
							"raw": ""
						},
						"url": {
							"raw": "{{url}}/productManagement/bundle/10001",
							"host": [
								"{{url}}"
							],
							"path": [
								"productManagement",
								"bundle",
								"10001"
							]
						}
					},
					"code": 200,
					"_postman_previewlanguage": null,
					"header": null,
					"cookie": [],
					"body": "Successful operation"
				}
			]
		},
		{
			"name": "productManagement/bundle/10001/component/20001",
			"request": {
				"method": "DELETE",
				"header": [],
				"body": {
					"mode": "raw",
					"raw": ""
				},
				"url": {
					"raw": "{{url}}/productManagement/bundle/10001/component/20001",
					"host": [
						"{{url}}"
					],
					"path": [
						"productManagement",
						"bundle",
						"10001",
						"component",
						"20001"
					]
				},
				"description": "deleteBundleComponent"
			},
			"response": [
				{
					"id": "e28042ea-a00f-429a-944c-911cc615a970",
					"name": "Default",
					"originalRequest": {
						"method": "DELETE",
						"header": [],
						"body": {
							"mode": "raw",
							"raw": ""
						},
						"url": {
							"raw": "{{url}}/productManagement/bundle/10001/component/20001",
							"host": [
								"{{url}}"
							],
							"path": [
								"productManagement",
								"bundle",
								"10001",
								"component",
								"20001"
							]
						}
					},
					"code": 200,
					"_postman_previewlanguage": null,
					"header": null,
					"cookie": [],
					"body": "Successful operation"
				}
			]
		},
		{
			"name": "productManagement/bundle/10001/rule/20001",
			"request": {
				"method": "DELETE",
				"header": [],
				"body": {
					"mode": "raw",
					"raw": ""
				},
				"url": {
					"raw": "{{url}}/productManagement/bundle/10001/rule/20001",
					"host": [
						"{{url}}"
					],
					"path": [
						"productManagement",
						"bundle",
						"10001",
						"rule",
						"20001"
					]
				},
				"description": "deleteBundleRule"
			},
			"response": [
				{
					"id": "544c2324-7335-4621-8516-5a9e429a3a68",
					"name": "Default",
					"originalRequest": {
						"method": "DELETE",
						"header": [],
						"body": {
							"mode": "raw",
							"raw": ""
						},
						"url": {
							"raw": "{{url}}/productManagement/bundle/10001/rule/20001",
							"host": [
								"{{url}}"
							],
							"path": [
								"productManagement",
								"bundle",
								"10001",
								"rule",
								"20001"
							]
						}
					},
					"code": 200,
					"_postman_previewlanguage": null,
					"header": null,
					"cookie": [],
					"body": "Successful operation"
				}
			]
		},
		{
			"name": "productManagement/component/10001",
			"request": {
				"method": "DELETE",
				"header": [],
				"body": {
					"mode": "raw",
					"raw": ""
				},
				"url": {
					"raw": "{{url}}/productManagement/component/10001",
					"host": [
						"{{url}}"
					],
					"path": [
						"productManagement",
						"component",
						"10001"
					]
				},
				"description": "deleteComponent"
			},
			"response": [
				{
					"id": "4ad1b560-f7aa-4106-b8a6-0d4f8fbd5d45",
					"name": "Default",
					"originalRequest": {
						"method": "DELETE",
						"header": [],
						"body": {
							"mode": "raw",
							"raw": ""
						},
						"url": {
							"raw": "{{url}}/productManagement/component/10001",
							"host": [
								"{{url}}"
							],
							"path": [
								"productManagement",
								"component",
								"10001"
							]
						}
					},
					"code": 200,
					"_postman_previewlanguage": null,
					"header": null,
					"cookie": [],
					"body": "Successful operation"
				}
			]
		},
		{
			"name": "productManagement/bundle/10001/component",
			"request": {
				"method": "GET",
				"header": [],
				"body": {
					"mode": "raw",
					"raw": ""
				},
				"url": {
					"raw": "{{url}}/productManagement/bundle/10001/component",
					"host": [
						"{{url}}"
					],
					"path": [
						"productManagement",
						"bundle",
						"10001",
						"component"
					]
				},
				"description": "getBundleComponents"
			},
			"response": [
				{
					"id": "5b8ba427-383c-4e61-b9e1-5e661abfd8d4",
					"name": "Default",
					"originalRequest": {
						"method": "GET",
						"header": [],
						"body": {
							"mode": "raw",
							"raw": ""
						},
						"url": {
							"raw": "{{url}}/productManagement/bundle/10001/component",
							"host": [
								"{{url}}"
							],
							"path": [
								"productManagement",
								"bundle",
								"10001",
								"component"
							]
						}
					},
					"code": 200,
					"_postman_previewlanguage": null,
					"header": null,
					"cookie": [],
					"body": "[\n\t[\n\t{\n\t\t\"instanceId\": 10001,\n\t\t\"componentId\": \"20001\",\n\t\t\"name\": \"compName\",\n\t\t\"benefitType\": \"voice\",\n\t\t\"benefitValueOverridden\": 3001,\n\t\t\"benefitUnitOfMeasure\": \"measureUnit\",\n\t\t\"priceOverridden\": 5000,\n\t\t\"modifiedBy\": \"Robin\",\n\t\t\"modifiedDate\": \"20-09-2018 00:00:00\"\n\t}\n\t],\n\t[\n\t{\n\t\t\"instanceId\": 10002,\n\t\t\"componentId\": \"20002\",\n\t\t\"name\": \"compName\",\n\t\t\"benefitType\": \"voice\",\n\t\t\"benefitValueOverridden\": 3002,\n\t\t\"benefitUnitOfMeasure\": \"measureUnit\",\n\t\t\"priceOverridden\": 5000,\n\t\t\"modifiedBy\": \"Robin\",\n\t\t\"modifiedDate\": \"20-09-2018 00:00:00\"\n\t}\n\t]\n]"
				}
			]
		},
		{
			"name": "productManagement/bundle/10001/rule/20001",
			"request": {
				"method": "GET",
				"header": [],
				"body": {
					"mode": "raw",
					"raw": ""
				},
				"url": {
					"raw": "{{url}}/productManagement/bundle/10001/rule/20001",
					"host": [
						"{{url}}"
					],
					"path": [
						"productManagement",
						"bundle",
						"10001",
						"rule",
						"20001"
					]
				},
				"description": "getBundleRule"
			},
			"response": [
				{
					"id": "3ad395df-bde2-4f21-9a17-b9d80fede099",
					"name": "Default",
					"originalRequest": {
						"method": "GET",
						"header": [],
						"body": {
							"mode": "raw",
							"raw": ""
						},
						"url": {
							"raw": "{{url}}/productManagement/bundle/10001/rule/20001",
							"host": [
								"{{url}}"
							],
							"path": [
								"productManagement",
								"bundle",
								"10001",
								"rule",
								"20001"
							]
						}
					},
					"code": 200,
					"_postman_previewlanguage": null,
					"header": null,
					"cookie": [],
					"body": "{\n\t\"bundleId\": 10001,\n\t\"name\": \"Robin\",\n\t\"description\": \"description of the bundle\",\n\t\"rules\": [\n\t\t\t\t{\n\t\t\t\t\t\"ruleId\": 20001,\n\t\t\t\t\t\"name\": \"ruleName\",\n\t\t\t\t\t\"decisionType\": \"price\",\n\t\t\t\t\t\"when\": [\n\t\t\t\t\t\t\t\t{\n\t\t\t\t\t\t\t\t\t\"conditionId\": 12345,\n\t\t\t\t\t\t\t\t\t\"leftOperand\": \"SELFCARE\",\n\t\t\t\t\t\t\t\t\t\"rightOperand\": \"rightOperand\"\n\t\t\t\t\t\t\t\t}\n\t\t\t\t\t\t\t],\n\t\t\t\t\t\"then\": [\n\t\t\t\t\t\t\t\t{\n\t\t\t\t\t\t\t\t\t\"resultId\": 12345,\n\t\t\t\t\t\t\t\t\t\"leftOperand\": \"10\",\n\t\t\t\t\t\t\t\t\t\"operator\": \"Airtel\",\n\t\t\t\t\t\t\t\t\t\"rightOperand\": \"true\"\n\t\t\t\t\t\t\t\t}\n\t\t\t\t\t\t\t],\n\t\t\t\t\t\"modifiedBy\": \"Robin\",\n\t\t\t\t\t\"modifiedDate\": \"20-09-2018 10:20:30\"\n\t\t\t\t}\n\t\t\t]\n}"
				}
			]
		},
		{
			"name": "productManagement/bundle/10001/rule?decisionType=price",
			"request": {
				"method": "GET",
				"header": [],
				"body": {
					"mode": "raw",
					"raw": ""
				},
				"url": {
					"raw": "{{url}}/productManagement/bundle/10001/rule?decisionType=price",
					"host": [
						"{{url}}"
					],
					"path": [
						"productManagement",
						"bundle",
						"10001",
						"rule"
					],
					"query": [
						{
							"key": "decisionType",
							"value": "price"
						}
					]
				},
				"description": "getBundleRules"
			},
			"response": [
				{
					"id": "abdd7352-96e8-44f3-a221-37ac5dc6f5e4",
					"name": "Default",
					"originalRequest": {
						"method": "GET",
						"header": [],
						"body": {
							"mode": "raw",
							"raw": ""
						},
						"url": {
							"raw": "{{url}}/productManagement/bundle/10001/rule?decisionType=price",
							"host": [
								"{{url}}"
							],
							"path": [
								"productManagement",
								"bundle",
								"10001",
								"rule"
							],
							"query": [
								{
									"key": "decisionType",
									"value": "price"
								}
							]
						}
					},
					"code": 200,
					"_postman_previewlanguage": null,
					"header": null,
					"cookie": [],
					"body": "[ \n{\n\t\"bundleId\": 10001,\n\t\"name\": \"Robin\",\n\t\"description\": \"description of the bundle\",\n\t\"rules\": [\n\t\t\t\t{\n\t\t\t\t\t\"ruleId\": 20001,\n\t\t\t\t\t\"name\": \"ruleName\",\n\t\t\t\t\t\"decisionType\": \"price\",\n\t\t\t\t\t\"when\": [\n\t\t\t\t\t\t\t\t{\n\t\t\t\t\t\t\t\t\t\"conditionId\": 12345,\n\t\t\t\t\t\t\t\t\t\"leftOperand\": \"SELFCARE\",\n\t\t\t\t\t\t\t\t\t\"rightOperand\": \"rightOperand\"\n\t\t\t\t\t\t\t\t}\n\t\t\t\t\t\t\t],\n\t\t\t\t\t\"then\": [\n\t\t\t\t\t\t\t\t{\n\t\t\t\t\t\t\t\t\t\"resultId\": 12345,\n\t\t\t\t\t\t\t\t\t\"leftOperand\": \"10\",\n\t\t\t\t\t\t\t\t\t\"operator\": \"Airtel\",\n\t\t\t\t\t\t\t\t\t\"rightOperand\": \"true\"\n\t\t\t\t\t\t\t\t}\n\t\t\t\t\t\t\t],\n\t\t\t\t\t\"modifiedBy\": \"Robin\",\n\t\t\t\t\t\"modifiedDate\": \"20-09-2018 10:20:30\"\n\t\t\t\t}\n\t\t\t]\n},\n{\n\t\"bundleId\": 10002,\n\t\"name\": \"Robin\",\n\t\"description\": \"description of the bundle\",\n\t\"rules\": [\n\t\t\t\t{\n\t\t\t\t\t\"ruleId\": 20002,\n\t\t\t\t\t\"name\": \"ruleName\",\n\t\t\t\t\t\"decisionType\": \"price\",\n\t\t\t\t\t\"when\": [\n\t\t\t\t\t\t\t\t{\n\t\t\t\t\t\t\t\t\t\"conditionId\": 12346,\n\t\t\t\t\t\t\t\t\t\"leftOperand\": \"SELFCARE\",\n\t\t\t\t\t\t\t\t\t\"rightOperand\": \"rightOperand\"\n\t\t\t\t\t\t\t\t}\n\t\t\t\t\t\t\t],\n\t\t\t\t\t\"then\": [\n\t\t\t\t\t\t\t\t{\n\t\t\t\t\t\t\t\t\t\"resultId\": 12346,\n\t\t\t\t\t\t\t\t\t\"leftOperand\": \"10\",\n\t\t\t\t\t\t\t\t\t\"operator\": \"Airtel\",\n\t\t\t\t\t\t\t\t\t\"rightOperand\": \"true\"\n\t\t\t\t\t\t\t\t}\n\t\t\t\t\t\t\t],\n\t\t\t\t\t\"modifiedBy\": \"Robin\",\n\t\t\t\t\t\"modifiedDate\": \"20-09-2018 10:20:30\"\n\t\t\t\t}\n\t\t\t]\n}\n]"
				}
			]
		},
		{
			"name": "productManagement/bundle?category=category1",
			"request": {
				"method": "GET",
				"header": [],
				"body": {
					"mode": "raw",
					"raw": ""
				},
				"url": {
					"raw": "{{url}}/productManagement/bundle?category=category1",
					"host": [
						"{{url}}"
					],
					"path": [
						"productManagement",
						"bundle"
					],
					"query": [
						{
							"key": "category",
							"value": "category1"
						}
					]
				},
				"description": "getBundles"
			},
			"response": [
				{
					"id": "09b95402-8634-4d59-838b-8f52eeb139bf",
					"name": "Default",
					"originalRequest": {
						"method": "GET",
						"header": [],
						"body": {
							"mode": "raw",
							"raw": ""
						},
						"url": {
							"raw": "{{url}}/productManagement/bundle?category=category1",
							"host": [
								"{{url}}"
							],
							"path": [
								"productManagement",
								"bundle"
							],
							"query": [
								{
									"key": "category",
									"value": "category1"
								}
							]
						}
					},
					"code": 200,
					"_postman_previewlanguage": null,
					"header": null,
					"cookie": [],
					"body": "[ \n\t{\n\t\t\"bundleId\": 10001,\n\t\t\"name\": \"bundleName\",\n\t\t\"description\": \"bundle description\",\n\t\t\"priceSumOfComponents\": \"system derived by summing up the price of each component\",\n\t\t\"priceOverridden\": \"overridden at bundle level by marketing user. optional\",\n\t\t\"status\": \"active\",\n\t\t\"category\": [\"category1\", \"category2\"],\n\t\t\"effectiveStartDate\": \"20-09-2018\",\n\t\t\"effectiveEndDate\": \"25-09-2018\",\n\t\t\"modifiedBy\": \"Robin\",\n\t\t\"modifiedDate\": \"20-09-2018\"\n\t},\n\t{\n\t\t\"bundleId\": 10002,\n\t\t\"name\": \"bundleName\",\n\t\t\"description\": \"bundle description\",\n\t\t\"priceSumOfComponents\": \"system derived by summing up the price of each component\",\n\t\t\"priceOverridden\": \"overridden at bundle level by marketing user. optional\",\n\t\t\"status\": \"active\",\n\t\t\"category\": [\"category1\", \"category2\"],\n\t\t\"effectiveStartDate\": \"20-09-2018\",\n\t\t\"effectiveEndDate\": \"25-09-2018\",\n\t\t\"modifiedBy\": \"Robin\",\n\t\t\"modifiedDate\": \"20-09-2018\"\n\t}\n]"
				}
			]
		},
		{
			"name": "productManagement/component/10001",
			"request": {
				"method": "GET",
				"header": [],
				"body": {
					"mode": "raw",
					"raw": ""
				},
				"url": {
					"raw": "{{url}}/productManagement/component/10001",
					"host": [
						"{{url}}"
					],
					"path": [
						"productManagement",
						"component",
						"10001"
					]
				},
				"description": "getComponent"
			},
			"response": [
				{
					"id": "7e57e98c-b676-42ec-81e7-7504b3db069a",
					"name": "Default",
					"originalRequest": {
						"method": "GET",
						"header": [],
						"body": {
							"mode": "raw",
							"raw": ""
						},
						"url": {
							"raw": "{{url}}/productManagement/component/10001",
							"host": [
								"{{url}}"
							],
							"path": [
								"productManagement",
								"component",
								"10001"
							]
						}
					},
					"code": 200,
					"_postman_previewlanguage": null,
					"header": null,
					"cookie": [],
					"body": "{\n\t\"componentId\": \"20001\",\n\t\"name\": \"compName\",\n\t\"offerId\": \"offer-01\",\n\t\"daId\": \"dedicated_account_id\",\n\t\"utId\": \"usage_threshold_id\",\n\t\"ucId\": \"usage_counter_id\",\n\t\"category\": \"A1\",\n\t\"benefitType\": \"voice\",\n\t\"benefitValue\": 10.25,\n\t\"benefitUnitOfMeasure\": \"50\",\n\t\"price\": 100,\n\t\"effectiveStartDate\": \"20-09-2018\",\n\t\"effectiveEndDate\": \"25-09-2018\",\n\t\"modifiedBy\": \"Robin\",\n\t\"modifiedDate\": \"20-09-2018\"\n}"
				}
			]
		},
		{
			"name": "productManagement/component?category=category1",
			"request": {
				"method": "GET",
				"header": [],
				"body": {
					"mode": "raw",
					"raw": ""
				},
				"url": {
					"raw": "{{url}}/productManagement/component?category=category1",
					"host": [
						"{{url}}"
					],
					"path": [
						"productManagement",
						"component"
					],
					"query": [
						{
							"key": "category",
							"value": "category1"
						}
					]
				},
				"description": "getComponents"
			},
			"response": [
				{
					"id": "cb2d3bf2-3c84-44f8-a56f-cbb6969f03c5",
					"name": "Default",
					"originalRequest": {
						"method": "GET",
						"header": [],
						"body": {
							"mode": "raw",
							"raw": ""
						},
						"url": {
							"raw": "{{url}}/productManagement/component?category=category1",
							"host": [
								"{{url}}"
							],
							"path": [
								"productManagement",
								"component"
							],
							"query": [
								{
									"key": "category",
									"value": "category1"
								}
							]
						}
					},
					"code": 200,
					"_postman_previewlanguage": null,
					"header": null,
					"cookie": [],
					"body": "[\n\t{\n\t\t\"componentId\": \"20001\",\n\t\t\"name\": \"compName\",\n\t\t\"offerId\": \"offer-01\",\n\t\t\"daId\": \"dedicated_account_id\",\n\t\t\"utId\": \"usage_threshold_id\",\n\t\t\"ucId\": \"usage_counter_id\",\n\t\t\"category\": \"A1\",\n\t\t\"benefitType\": \"voice\",\n\t\t\"benefitValue\": 10.25,\n\t\t\"benefitUnitOfMeasure\": \"50\",\n\t\t\"price\": 100,\n\t\t\"effectiveStartDate\": \"20-09-2018\",\n\t\t\"effectiveEndDate\": \"25-09-2018\",\n\t\t\"modifiedBy\": \"Robin\",\n\t\t\"modifiedDate\": \"20-09-2018\"\n\t},\n\t{\n\t\t\"componentId\": \"20002\",\n\t\t\"name\": \"compName\",\n\t\t\"offerId\": \"offer-01\",\n\t\t\"daId\": \"dedicated_account_id\",\n\t\t\"utId\": \"usage_threshold_id\",\n\t\t\"ucId\": \"usage_counter_id\",\n\t\t\"category\": \"A1\",\n\t\t\"benefitType\": \"voice\",\n\t\t\"benefitValue\": 10.25,\n\t\t\"benefitUnitOfMeasure\": \"50\",\n\t\t\"price\": 100,\n\t\t\"effectiveStartDate\": \"20-09-2018\",\n\t\t\"effectiveEndDate\": \"25-09-2018\",\n\t\t\"modifiedBy\": \"Robin\",\n\t\t\"modifiedDate\": \"20-09-2018\"\n\t}\n]"
				}
			]
		},
		{
			"name": "productManagement/bundle/10001",
			"request": {
				"method": "PUT",
				"header": [],
				"body": {
					"mode": "raw",
					"raw": "{\n\t\"bundleId\": 10001,\n\t\"name\": \"bundleName\",\n\t\"description\": \"bundle description\",\n\t\"priceSumOfComponents\": \"system derived by summing up the price of each component\",\n\t\"priceOverridden\": \"overridden at bundle level by marketing user. optional\",\n\t\"status\": \"active\",\n\t\"category\": [\"category1\", \"category2\"],\n\t\"effectiveStartDate\": \"20-09-2018\",\n\t\"effectiveEndDate\": \"25-09-2018\",\n\t\"modifiedBy\": \"Robin\",\n\t\"modifiedDate\": \"20-09-2018\"\n}"
				},
				"url": {
					"raw": "{{url}}/productManagement/bundle/10001",
					"host": [
						"{{url}}"
					],
					"path": [
						"productManagement",
						"bundle",
						"10001"
					]
				},
				"description": "updateBundle"
			},
			"response": [
				{
					"id": "6617b674-aba9-4e71-b136-f775e1263b36",
					"name": "Default",
					"originalRequest": {
						"method": "PUT",
						"header": [],
						"body": {
							"mode": "raw",
							"raw": "{\n\t\"bundleId\": 10001,\n\t\"name\": \"bundleName\",\n\t\"description\": \"bundle description\",\n\t\"priceSumOfComponents\": \"system derived by summing up the price of each component\",\n\t\"priceOverridden\": \"overridden at bundle level by marketing user. optional\",\n\t\"status\": \"active\",\n\t\"category\": [\"category1\", \"category2\"],\n\t\"effectiveStartDate\": \"20-09-2018\",\n\t\"effectiveEndDate\": \"25-09-2018\",\n\t\"modifiedBy\": \"Robin\",\n\t\"modifiedDate\": \"20-09-2018\"\n}"
						},
						"url": {
							"raw": "{{url}}/productManagement/bundle/10001",
							"host": [
								"{{url}}"
							],
							"path": [
								"productManagement",
								"bundle",
								"10001"
							]
						}
					},
					"code": 200,
					"_postman_previewlanguage": null,
					"header": null,
					"cookie": [],
					"body": "Successful operation"
				}
			]
		},
		{
			"name": "productManagement/bundle/10001/component/20001",
			"request": {
				"method": "PUT",
				"header": [],
				"body": {
					"mode": "raw",
					"raw": "{\n\t\"instanceId\": 10001,\n\t\"componentId\": \"20001\",\n\t\"name\": \"compName\",\n\t\"benefitType\": \"voice\",\n\t\"benefitValueOverridden\": 3001,\n\t\"benefitUnitOfMeasure\": \"measureUnit\",\n\t\"priceOverridden\": 5000,\n\t\"modifiedBy\": \"Robin\",\n\t\"modifiedDate\": \"20-09-2018 10:20:30\"\n}"
				},
				"url": {
					"raw": "{{url}}/productManagement/bundle/10001/component/20001",
					"host": [
						"{{url}}"
					],
					"path": [
						"productManagement",
						"bundle",
						"10001",
						"component",
						"20001"
					]
				},
				"description": "updateBundleComponent"
			},
			"response": [
				{
					"id": "ce62c180-8128-4a6d-8264-5746561aa6fd",
					"name": "Default",
					"originalRequest": {
						"method": "PUT",
						"header": [],
						"body": {
							"mode": "raw",
							"raw": "{\n\t\"instanceId\": 10001,\n\t\"componentId\": \"20001\",\n\t\"name\": \"compName\",\n\t\"benefitType\": \"voice\",\n\t\"benefitValueOverridden\": 3001,\n\t\"benefitUnitOfMeasure\": \"measureUnit\",\n\t\"priceOverridden\": 5000,\n\t\"modifiedBy\": \"Robin\",\n\t\"modifiedDate\": \"20-09-2018 10:20:30\"\n}"
						},
						"url": {
							"raw": "{{url}}/productManagement/bundle/10001/component/20001",
							"host": [
								"{{url}}"
							],
							"path": [
								"productManagement",
								"bundle",
								"10001",
								"component",
								"20001"
							]
						}
					},
					"code": 200,
					"_postman_previewlanguage": null,
					"header": null,
					"cookie": [],
					"body": "Successful operation"
				}
			]
		},
		{
			"name": "productManagement/bundle/10001/rule/20001",
			"request": {
				"method": "PUT",
				"header": [],
				"body": {
					"mode": "raw",
					"raw": "{\n\t\"ruleId\": 10001,\n\t\"name\": \"ruleName\",\n\t\"decisionType\": \"price\",\n\t\"when\": [\n\t\t\t\t{\n\t\t\t\t\t\"conditionId\": 101,\n\t\t\t\t\t\"leftOperand\": \"paytm\",\n\t\t\t\t\t\"rightOperand\": \"card\"\n\t\t\t\t}\n\t\t\t],\n\t\"then\": [\n\t\t\t\t{\n\t\t\t\t\t\"resultId\": 101,\n\t\t\t\t\t\"leftOperand\": \"10\",\n\t\t\t\t\t\"operator\": \"Airtel\",\n\t\t\t\t\t\"rightOperand\": \"paytm\"\n\t\t\t\t}\n\t\t\t],\n\t\"modifiedBy\": \"Robin\",\n\t\"modifiedDate\": \"20-09-2018 10:20:30\"\n}"
				},
				"url": {
					"raw": "{{url}}/productManagement/bundle/10001/rule/20001",
					"host": [
						"{{url}}"
					],
					"path": [
						"productManagement",
						"bundle",
						"10001",
						"rule",
						"20001"
					]
				},
				"description": "updateBundleRule"
			},
			"response": [
				{
					"id": "13de0925-f956-41f6-af2a-edc635ba9255",
					"name": "Default",
					"originalRequest": {
						"method": "PUT",
						"header": [],
						"body": {
							"mode": "raw",
							"raw": "{\n\t\"ruleId\": 10001,\n\t\"name\": \"ruleName\",\n\t\"decisionType\": \"price\",\n\t\"when\": [\n\t\t\t\t{\n\t\t\t\t\t\"conditionId\": 101,\n\t\t\t\t\t\"leftOperand\": \"paytm\",\n\t\t\t\t\t\"rightOperand\": \"card\"\n\t\t\t\t}\n\t\t\t],\n\t\"then\": [\n\t\t\t\t{\n\t\t\t\t\t\"resultId\": 101,\n\t\t\t\t\t\"leftOperand\": \"10\",\n\t\t\t\t\t\"operator\": \"Airtel\",\n\t\t\t\t\t\"rightOperand\": \"paytm\"\n\t\t\t\t}\n\t\t\t],\n\t\"modifiedBy\": \"Robin\",\n\t\"modifiedDate\": \"20-09-2018 10:20:30\"\n}"
						},
						"url": {
							"raw": "{{url}}/productManagement/bundle/10001/rule/20001",
							"host": [
								"{{url}}"
							],
							"path": [
								"productManagement",
								"bundle",
								"10001",
								"rule",
								"20001"
							]
						}
					},
					"code": 200,
					"_postman_previewlanguage": null,
					"header": null,
					"cookie": [],
					"body": "Successful operation"
				}
			]
		},
		{
			"name": "productManagement/component/10001",
			"request": {
				"method": "GET",
				"header": [],
				"body": {
					"mode": "raw",
					"raw": "{\n\t\"componentId\": \"20001\",\n\t\"name\": \"compName\",\n\t\"offerId\": \"offer-01\",\n\t\"daId\": \"dedicated_account_id\",\n\t\"utId\": \"usage_threshold_id\",\n\t\"ucId\": \"usage_counter_id\",\n\t\"category\": \"A1\",\n\t\"benefitType\": \"voice\",\n\t\"benefitValue\": 10.25,\n\t\"benefitUnitOfMeasure\": \"50\",\n\t\"price\": 100,\n\t\"effectiveStartDate\": \"20-09-2018\",\n\t\"effectiveEndDate\": \"25-09-2018\",\n\t\"modifiedBy\": \"Robin\",\n\t\"modifiedDate\": \"20-09-2018\"\n}"
				},
				"url": {
					"raw": "{{url}}/productManagement/component/10001",
					"host": [
						"{{url}}"
					],
					"path": [
						"productManagement",
						"component",
						"10001"
					]
				},
				"description": "updateComponent"
			},
			"response": [
				{
					"id": "bd9555cb-f1cb-4bee-87fc-61c50830436f",
					"name": "Default",
					"originalRequest": {
						"method": "GET",
						"header": [],
						"body": {
							"mode": "raw",
							"raw": "{\n\t\"componentId\": \"20001\",\n\t\"name\": \"compName\",\n\t\"offerId\": \"offer-01\",\n\t\"daId\": \"dedicated_account_id\",\n\t\"utId\": \"usage_threshold_id\",\n\t\"ucId\": \"usage_counter_id\",\n\t\"category\": \"A1\",\n\t\"benefitType\": \"voice\",\n\t\"benefitValue\": 10.25,\n\t\"benefitUnitOfMeasure\": \"50\",\n\t\"price\": 100,\n\t\"effectiveStartDate\": \"20-09-2018\",\n\t\"effectiveEndDate\": \"25-09-2018\",\n\t\"modifiedBy\": \"Robin\",\n\t\"modifiedDate\": \"20-09-2018\"\n}"
						},
						"url": {
							"raw": "{{url}}/productManagement/component/10001",
							"host": [
								"{{url}}"
							],
							"path": [
								"productManagement",
								"component",
								"10001"
							]
						}
					},
					"code": 200,
					"_postman_previewlanguage": null,
					"header": null,
					"cookie": [],
					"body": "Successful operation"
				}
			]
		}
	]
}